Tue Oct 15 03:51:58 CEST 2024
Preloading tcmalloc_minimal.so
Preloading libexcabort.so
ApplicationMgr    SUCCESS 
====================================================================================================================================
                                                   Welcome to ApplicationMgr (GaudiCoreSvc v39r0)
                                          running on lxplus914.cern.ch on Tue Oct 15 03:52:07 2024
====================================================================================================================================
ApplicationMgr       INFO Application Manager Configured successfully
Py:ComponentAccumulator    INFO Athena job with pid 3715487
CoreDumpSvc          INFO Handling signals: 11(Segmentation fault) 7(Bus error) 4(Illegal instruction) 8(Floating point exception) 14(Alarm clock) 
AthenaEventLoopMgr   INFO Initializing AthenaEventLoopMgr
ClassIDSvc           INFO getRegistryEntries: read 3903 CLIDRegistry entries for module ALL
ClassIDSvc           INFO getRegistryEntries: read 2535 CLIDRegistry entries for module ALL
ClassIDSvc           INFO getRegistryEntries: read 6212 CLIDRegistry entries for module ALL
EventInfoCnvAlg      INFO Initializing EventInfoCnvAlg
EventI...foCnvTool   INFO Beam spot information not available
EventI...foCnvTool   INFO Will not fill beam spot information into xAOD::EventInfo
ClassIDSvc           INFO getRegistryEntries: read 430 CLIDRegistry entries for module ALL
PyComponentMgr       INFO Initializing PyComponentMgr...
LoadWriteDicts       INFO Initializing LoadWriteDicts...
ClassIDSvc           INFO getRegistryEntries: read 2470 CLIDRegistry entries for module ALL
DecisionSvc          INFO Inserting stream: StreamStream1 with no Algs
AthDictLoaderSvc     INFO in initialize...
AthDictLoaderSvc     INFO acquired Dso-registry
Stream...ream1Tool   INFO Initializing StreamStream1.StreamStream1Tool
PoolSvc              INFO Set connectionsvc retry/timeout/IDLE timeout to  'ConnectionRetrialPeriod':300/ 'ConnectionRetrialTimeOut':3600/ 'ConnectionTimeOut':5 seconds with connection cleanup disabled
PoolSvc              INFO Frontier compression level set to 5
DBReplicaSvc         INFO Frontier server at (serverurl=http://atlasfrontier-local.cern.ch:8000/atlr)(serverurl=http://atlasfrontier-ai.cern.ch:8000/atlr)(proxyurl=http://ca-proxy-atlas.cern.ch:3128)(proxyurl=http://ca-proxy-meyrin.cern.ch:3128)(proxyurl=http://ca-proxy.cern.ch:3128)(proxyurl=http://atlasbpfrontier.cern.ch:3127) will be considered for COOL data
DBReplicaSvc         INFO Read replica configuration from /cvmfs/atlas-nightlies.cern.ch/repo/sw/main--dev3LCG_Athena_x86_64-el9-gcc14-opt/2024-10-13T1100/Athena/25.0.20/InstallArea/x86_64-el9-gcc14-opt/share/dbreplica.config
DBReplicaSvc         INFO Total of 10 servers found for host lxplus914.cern.ch [ATLF ATLAS_COOLPROD atlas_dd ATLAS_CONFIG INT8R INTR ATONR_COOL ATONR_CONF DEVDB11 ATLF ]
PoolSvc              INFO Successfully setup replica sorting algorithm
PoolSvc              INFO Setting up APR FileCatalog and Streams
PoolSvc              INFO POOL WriteCatalog is file:xAODTestWrite_rntup_catalog.xml
DbSession            INFO     Open     DbSession    
Domain[ROOT_All]     INFO >   Access   DbDomain     READ      [ROOT_All] 
MetaDataSvc          INFO Initializing MetaDataSvc
MetaDataSvc          INFO Found MetaDataTools = PublicToolHandleArray([])
StreamStream1        INFO Found HelperTools = PrivateToolHandleArray(['xAODMaker::EventFormatStreamHelperTool/Stream1_EventFormatStreamHelperTool','Athena::ThinningCacheTool/ThinningCacheTool_StreamStream1'])
StreamStream1        INFO Data output: xaoddata.rntup.root
StreamStream1        INFO I/O reinitialization...
ClassIDSvc           INFO getRegistryEntries: read 528 CLIDRegistry entries for module ALL
ClassIDSvc           INFO getRegistryEntries: read 82 CLIDRegistry entries for module ALL
ClassIDSvc           INFO getRegistryEntries: read 15 CLIDRegistry entries for module ALL
ClassIDSvc           INFO getRegistryEntries: read 14 CLIDRegistry entries for module ALL
ClassIDSvc           INFO getRegistryEntries: read 3 CLIDRegistry entries for module ALL
ClassIDSvc           INFO getRegistryEntries: read 15 CLIDRegistry entries for module ALL
EventSelector        INFO  Enter McEventSelector Initialization 
AthenaEventLoopMgr   INFO Setup EventSelector service EventSelector
ApplicationMgr       INFO Application Manager Initialized successfully
ApplicationMgr       INFO Application Manager Started successfully
EventP...stencySvc   INFO Added successfully Conversion service McCnvSvc
AthenaEventLoopMgr   INFO   ===>>>  start of run 0    <<<===
AthenaEventLoopMgr   INFO   ===>>>  start processing event #1, run #0 0 events processed so far  <<<===
ClassIDSvc           INFO getRegistryEntries: read 134 CLIDRegistry entries for module ALL
DbSession            INFO     Open     DbSession    
Domain[ROOT_All]     INFO >   Access   DbDomain     UPDATE    [ROOT_All] 
Domain[ROOT_All]     INFO ->  Access   DbDatabase   CREATE    [ROOT_All] 6C56A722-165A-714D-82FF-09B513C9B8CF
Domain[ROOT_All]     INFO                           xaoddata.rntup.root
RootDatabase.open    INFO xaoddata.rntup.root File version:63301
StorageSvc           INFO Building shape according to reflection information using shape ID for:
StorageSvc           INFO DMTest::CAuxContainer_v1 [2A4C8577-05E9-4246-96EC-97ED64FF9C5B]
StorageSvc           INFO Building shape according to reflection information using shape ID for:
StorageSvc           INFO DMTest::CInfoAuxContainer_v1 [7C9CE4FE-2AD8-4DC5-B36E-19B22994951E]
StorageSvc           INFO Building shape according to reflection information using shape ID for:
StorageSvc           INFO DMTest::CTrigAuxContainer_v1 [5533CABA-9ACF-486F-BF54-873A6DB65FDB]
StorageSvc           INFO Building shape according to reflection information using shape ID for:
StorageSvc           INFO DMTest::GAuxContainer_v1 [E70544A9-9D77-475E-AAD8-C5F967A44B66]
StorageSvc           INFO Building shape according to reflection information using shape ID for:
StorageSvc           INFO DMTest::HAuxContainer_v1 [AFB5909C-1DF3-44AC-ABB5-9818204C2736]
StorageSvc           INFO Building shape according to reflection information using shape ID for:
StorageSvc           INFO DMTest::JVecAuxContainer_v1 [C4E35F44-0C89-11EF-9321-E0C2649C5CE8]
StorageSvc           INFO Building shape according to reflection information using shape ID for:
StorageSvc           INFO xAOD::EventAuxInfo_v3 [0D6FFB22-1BCB-49B9-BBFB-66B6DF352067]
StorageSvc           INFO Building shape according to reflection information using shape ID for:
StorageSvc           INFO DMTest::JVecAuxInfo_v1 [BC23ACF4-11FE-11EF-B31F-E0C2649C5CE8]
StorageSvc           INFO Building shape according to reflection information using shape ID for:
StorageSvc           INFO DMTest::PLinksAuxInfo_v1 [C5100E70-68F9-495F-A79A-42CA11DEEEEB]
StorageSvc           INFO Building shape according to reflection information using shape ID for:
StorageSvc           INFO DMTest::PLinksAuxContainer_v1 [FE190B54-D9E7-4E92-8972-002CFD49E7B1]
StorageSvc           INFO Building shape according to reflection information using shape ID for:
StorageSvc           INFO DataVector<DMTest::C_v1> [10DE610D-5634-4D42-80D4-80B0A8C16452]
StorageSvc           INFO Building shape according to reflection information using shape ID for:
StorageSvc           INFO DMTest::C_v1 [CD37DA07-A986-4AB9-9221-EFC2FA9BB5A0]
StorageSvc           INFO Building shape according to reflection information using shape ID for:
StorageSvc           INFO DataVector<DMTest::G_v1> [C532D340-6D58-444F-9C34-54C7A3D645AD]
StorageSvc           INFO Building shape according to reflection information using shape ID for:
StorageSvc           INFO DMTest::CVecWithData_v1 [B35B5C5A-E691-4735-96E9-EA24BB1816C6]
StorageSvc           INFO Building shape according to reflection information using shape ID for:
StorageSvc           INFO DataVector<DMTest::H_v1> [EAD7484F-1F40-4344-A667-BB9C47536BE6]
StorageSvc           INFO Building shape according to reflection information using shape ID for:
StorageSvc           INFO xAOD::EventInfo_v1 [AE8BED6D-1D41-4CAF-994B-42613FC91A0A]
StorageSvc           INFO Building shape according to reflection information using shape ID for:
StorageSvc           INFO DMTest::PLinks_v1 [C3646B0E-337D-48B5-9D08-5A2C96A6CFC9]
StorageSvc           INFO Building shape according to reflection information using shape ID for:
StorageSvc           INFO DMTest::JVec_v1 [27CC6E50-0C8C-11EF-9541-E0C2649C5CE8]
StorageSvc           INFO Building shape according to reflection information using shape ID for:
StorageSvc           INFO DMTest::S2 [EC2D9BCD-4B99-41EB-A799-82BAF48887FC]
StorageSvc           INFO Building shape according to reflection information using shape ID for:
StorageSvc           INFO DataVector<DMTest::PLinks_v1> [85B77C8E-8491-41EB-8185-B5D982CBA3C1]
StorageSvc           INFO Building shape according to reflection information using shape ID for:
StorageSvc           INFO DataVector<DMTest::JVec_v1> [D80ED384-0C8C-11EF-A65E-E0C2649C5CE8]
StorageSvc           INFO Building shape according to reflection information using shape ID for:
StorageSvc           INFO DataHeader_p6 [4DDBD295-EFCE-472A-9EC8-15CD35A9EB8D]
StorageSvc           INFO Building shape according to reflection information using shape ID for:
StorageSvc           INFO DataHeaderForm_p6 [7BE56CEF-C866-4BEE-9348-A5F34B5F1DAD]
ClassIDSvc           INFO getRegistryEntries: read 158 CLIDRegistry entries for module ALL
AthenaEventLoopMgr   INFO   ===>>>  done processing event #1, run #0 1 events processed so far  <<<===
AthenaEventLoopMgr   INFO   ===>>>  start processing event #2, run #0 1 events processed so far  <<<===
AthenaEventLoopMgr   INFO   ===>>>  done processing event #2, run #0 2 events processed so far  <<<===
AthenaEventLoopMgr   INFO   ===>>>  start processing event #3, run #0 2 events processed so far  <<<===
AthenaEventLoopMgr   INFO   ===>>>  done processing event #3, run #0 3 events processed so far  <<<===
AthenaEventLoopMgr   INFO   ===>>>  start processing event #4, run #0 3 events processed so far  <<<===
AthenaEventLoopMgr   INFO   ===>>>  done processing event #4, run #0 4 events processed so far  <<<===
AthenaEventLoopMgr   INFO   ===>>>  start processing event #5, run #0 4 events processed so far  <<<===
AthenaEventLoopMgr   INFO   ===>>>  done processing event #5, run #0 5 events processed so far  <<<===
AthenaEventLoopMgr   INFO   ===>>>  start processing event #6, run #0 5 events processed so far  <<<===
AthenaEventLoopMgr   INFO   ===>>>  done processing event #6, run #0 6 events processed so far  <<<===
AthenaEventLoopMgr   INFO   ===>>>  start processing event #7, run #0 6 events processed so far  <<<===
AthenaEventLoopMgr   INFO   ===>>>  done processing event #7, run #0 7 events processed so far  <<<===
AthenaEventLoopMgr   INFO   ===>>>  start processing event #8, run #0 7 events processed so far  <<<===
AthenaEventLoopMgr   INFO   ===>>>  done processing event #8, run #0 8 events processed so far  <<<===
AthenaEventLoopMgr   INFO   ===>>>  start processing event #9, run #0 8 events processed so far  <<<===
AthenaEventLoopMgr   INFO   ===>>>  done processing event #9, run #0 9 events processed so far  <<<===
AthenaEventLoopMgr   INFO   ===>>>  start processing event #10, run #0 9 events processed so far  <<<===
AthenaEventLoopMgr   INFO   ===>>>  done processing event #10, run #0 10 events processed so far  <<<===
AthenaEventLoopMgr   INFO   ===>>>  start processing event #11, run #0 10 events processed so far  <<<===
AthenaEventLoopMgr   INFO   ===>>>  done processing event #11, run #0 11 events processed so far  <<<===
AthenaEventLoopMgr   INFO   ===>>>  start processing event #12, run #0 11 events processed so far  <<<===
AthenaEventLoopMgr   INFO   ===>>>  done processing event #12, run #0 12 events processed so far  <<<===
AthenaEventLoopMgr   INFO   ===>>>  start processing event #13, run #0 12 events processed so far  <<<===
AthenaEventLoopMgr   INFO   ===>>>  done processing event #13, run #0 13 events processed so far  <<<===
AthenaEventLoopMgr   INFO   ===>>>  start processing event #14, run #0 13 events processed so far  <<<===
AthenaEventLoopMgr   INFO   ===>>>  done processing event #14, run #0 14 events processed so far  <<<===
AthenaEventLoopMgr   INFO   ===>>>  start processing event #15, run #0 14 events processed so far  <<<===
AthenaEventLoopMgr   INFO   ===>>>  done processing event #15, run #0 15 events processed so far  <<<===
AthenaEventLoopMgr   INFO   ===>>>  start processing event #16, run #0 15 events processed so far  <<<===
AthenaEventLoopMgr   INFO   ===>>>  done processing event #16, run #0 16 events processed so far  <<<===
AthenaEventLoopMgr   INFO   ===>>>  start processing event #17, run #0 16 events processed so far  <<<===
AthenaEventLoopMgr   INFO   ===>>>  done processing event #17, run #0 17 events processed so far  <<<===
AthenaEventLoopMgr   INFO   ===>>>  start processing event #18, run #0 17 events processed so far  <<<===
AthenaEventLoopMgr   INFO   ===>>>  done processing event #18, run #0 18 events processed so far  <<<===
AthenaEventLoopMgr   INFO   ===>>>  start processing event #19, run #0 18 events processed so far  <<<===
AthenaEventLoopMgr   INFO   ===>>>  done processing event #19, run #0 19 events processed so far  <<<===
AthenaEventLoopMgr   INFO   ===>>>  start processing event #20, run #0 19 events processed so far  <<<===
AthenaEventLoopMgr   INFO   ===>>>  done processing event #20, run #0 20 events processed so far  <<<===
StorageSvc           INFO Building shape according to reflection information using shape ID for:
StorageSvc           INFO xAOD::EventFormat_v1 [0EFE2D2C-9E78-441D-9A87-9EE2B908AC81]
ClassIDSvc           INFO getRegistryEntries: read 7 CLIDRegistry entries for module ALL
StreamStream1        INFO Metadata records written: 21
Domain[ROOT_All]     INFO >   Deaccess DbDomain     READ      [ROOT_All] 
xaoddata.rn...root   INFO Database being retired...
Domain[ROOT_All]     INFO ->  Deaccess DbDatabase   CREATE    [ROOT_All] 6C56A722-165A-714D-82FF-09B513C9B8CF
Domain[ROOT_All]     INFO >   Deaccess DbDomain     UPDATE    [ROOT_All] 
ApplicationMgr       INFO Application Manager Stopped successfully
LoadWriteDicts       INFO Finalizing LoadWriteDicts...
AthenaPoolCnvSvc     INFO PerfStats ----------------------------------------
AthenaPoolCnvSvc     INFO PerfStats Timing Measurements for AthenaPoolCnvSvc
AthenaPoolCnvSvc     INFO PerfStats ----------------------------------------
AthenaPoolCnvSvc     INFO PerfStats | commitOutput    |              35 ms |
AthenaPoolCnvSvc     INFO PerfStats | fRep_ALL        |             198 ms |
AthenaPoolCnvSvc     INFO PerfStats | cRepR_ALL       |             190 ms |
AthenaPoolCnvSvc     INFO PerfStats | cRep_ALL        |              31 ms |
AthenaPoolCnvSvc     INFO PerfStats ----------------------------------------
AthDictLoaderSvc     INFO in finalize...
DecisionSvc          INFO Finalized successfully.
PyComponentMgr       INFO Finalizing PyComponentMgr...
ToolSvc              INFO Removing all tools created by ToolSvc
ApplicationMgr       INFO Application Manager Finalized successfully
ApplicationMgr       INFO Application Manager Terminated successfully
Py:Athena            INFO leaving with code 0: "successful run"
